<?xml version="1.0" encoding="utf-8"?>
<!-- Generator: Adobe Illustrator 16.0.0, SVG Export Plug-In . SVG Version: 6.00 Build 0)  -->
<!DOCTYPE svg PUBLIC "-//W3C//DTD SVG 1.1//EN" "http://www.w3.org/Graphics/SVG/1.1/DTD/svg11.dtd">
<svg version="1.1"
	 id="svg7384" xmlns:rdf="http://www.w3.org/1999/02/22-rdf-syntax-ns#" xmlns:cc="http://creativecommons.org/ns#" xmlns:dc="http://purl.org/dc/elements/1.1/"
	 xmlns="http://www.w3.org/2000/svg" xmlns:xlink="http://www.w3.org/1999/xlink" x="0px" y="0px" width="16px" height="16px"
	 viewBox="0 0 16 16" enable-background="new 0 0 16 16" xml:space="preserve">
<path d="M7.742,5.483C7.808,5.556,7.899,5.6,8,5.6s0.192-0.044,0.257-0.117l1.456-1.599C9.779,3.811,9.82,3.71,9.82,3.601
	c0-0.221-0.164-0.4-0.363-0.4c-0.102,0-0.193,0.044-0.258,0.117L8.364,4.234V0.4C8.364,0.179,8.201,0,8,0S7.636,0.179,7.636,0.4
	v3.834L6.802,3.317C6.735,3.245,6.644,3.2,6.544,3.2c-0.202,0-0.365,0.179-0.365,0.4c0,0.11,0.041,0.21,0.106,0.283L7.742,5.483z
	 M15.279,6.4H0.719c-0.402,0-0.728,0.359-0.728,0.8V8c0,0.442,0.326,0.801,0.728,0.801h0.146l1.32,6.896l0.007-0.003
	C2.233,15.868,2.369,16,2.539,16h10.922c0.17,0,0.307-0.132,0.346-0.306l0.006,0.003l1.322-6.896h0.145
	c0.403,0,0.729-0.358,0.729-0.801V7.2C16.009,6.759,15.683,6.4,15.279,6.4 M1.608,8.801H4.11l0.23,1.599H1.914L1.608,8.801z
	 M2.067,11.2h2.387l0.231,1.6H2.375L2.067,11.2z M2.834,15.2L2.528,13.6H4.8L5.03,15.2H2.834z M7.636,15.2H5.758L5.528,13.6h2.108
	V15.2z M7.636,12.8H5.413l-0.229-1.6h2.452V12.8z M7.636,10.399H5.069l-0.23-1.599h2.796V10.399z M10.24,15.2H8.364V13.6h2.106
	L10.24,15.2z M10.586,12.8H8.364v-1.6h2.452L10.586,12.8z M8.364,10.399V8.801h2.798l-0.23,1.599H8.364z M13.166,15.2h-2.195
	l0.229-1.601h2.271L13.166,15.2z M13.625,12.8h-2.311l0.229-1.6h2.389L13.625,12.8z M14.084,10.399H11.66l0.229-1.599h2.502
	L14.084,10.399z M15.279,8H0.719V7.2h14.56V8z"/>
</svg>
