<svg version="1.1" x="0px" y="0px" [--class--] viewBox="0 0 16 16" enable-background="new 0 0 16 16" xml:space="preserve">
<path d="M0,0v16h16V0H0z M5.775,9.773C4.794,9.773,4,8.979,4,8s0.794-1.773,1.775-1.773c0.979,0,1.774,0.794,1.774,1.773
  S6.754,9.773,5.775,9.773z M10.226,9.773C9.246,9.773,8.452,8.979,8.452,8s0.794-1.773,1.774-1.773S12,7.021,12,8
  S11.205,9.773,10.226,9.773z"/>
</svg>
