<svg version="1.1" x="0px" y="0px" [--class--] viewBox="0 0 16 16" enable-background="new 0 0 16 16" xml:space="preserve">
<g>
  <ellipse transform="matrix(-0.2624 -0.965 0.965 -0.2624 1.8672 12.9492)" cx="5.883" cy="5.761" rx="1.478" ry="1.055"/>
  <ellipse transform="matrix(-0.9977 0.0678 -0.0678 -0.9977 12.5867 20.1296)" cx="5.952" cy="10.278" rx="1.715" ry="1.252"/>
  <path d="M0,0v16h16V0H0z M8.015,5.789c0,1.253-1.173,1.408-1.173,1.941s1.557,0.959,1.557,2.282c0,2.207-2.73,2.083-2.73,2.083
    s-2.36,0.084-2.36-1.692c0-1.777,2.678-1.707,2.814-1.707C6.089,8.29,5.818,8.357,5.818,8.155c0-0.2,0-0.497,0-0.497
    S3.792,7.886,3.792,5.924S6.11,3.906,6.11,3.906s2.107,0,2.289,0c0,0.348-1.045,0.226-1.045,0.412
    C7.945,4.584,8.015,5.038,8.015,5.789z M12.691,5.967h-1.594v1.592H10.63V5.967H9.037V5.499h1.593V3.905h0.468v1.594h1.594V5.967z"
    />
</g>
</svg>
