<svg version="1.1" x="0px" y="0px" [--class--] viewBox="0 0 16 16" enable-background="new 0 0 16 16" xml:space="preserve">
<g>
  <path d="M8.063,4.311c-1.977,0-3.579,1.603-3.579,3.58c0,1.158,0.697,2.124,0.697,2.124l-0.437,1.303l1.346-0.439
    c0,0,0.877,0.592,1.972,0.592c1.977,0,3.58-1.602,3.58-3.579C11.643,5.914,10.04,4.311,8.063,4.311z M9.919,9.621
    c-0.253,0.273-0.792,0.4-1.046,0.328c-0.256-0.07-1.098-0.292-1.646-0.804C6.676,8.633,6.231,8.094,6.05,7.696
    C5.868,7.298,5.877,7.062,5.887,6.952C5.898,6.84,5.957,6.325,6.301,6.104c0,0,0.115-0.073,0.176-0.073c0.06,0,0.335,0,0.335,0
    S6.902,6.046,6.943,6.14c0.042,0.093,0.324,0.758,0.346,0.81c0.021,0.051,0.076,0.178-0.012,0.292S7.005,7.568,7.005,7.568
    s-0.073,0.065-0.011,0.17c0.064,0.105,0.286,0.45,0.577,0.71c0.292,0.26,0.647,0.452,0.824,0.51
    C8.573,9.018,8.611,8.94,8.681,8.853c0.068-0.088,0.278-0.355,0.278-0.355S9.033,8.39,9.176,8.457
    c0.145,0.065,0.842,0.403,0.842,0.403s0.086,0.016,0.09,0.109C10.113,9.064,10.172,9.348,9.919,9.621z"/>
  <path d="M0,0v16h16V0H0z M8.063,12.15c-1.186,0-2.053-0.525-2.053-0.525l-2.334,0.746l0.744-2.27c0,0-0.618-1.043-0.618-2.211
    c0-2.354,1.908-4.261,4.26-4.261c2.353,0,4.261,1.907,4.261,4.261C12.324,10.242,10.416,12.15,8.063,12.15z"/>
</g>
</svg>
