<svg version="1.1" x="0px" y="0px" [--class--] viewBox="0 0 16 16" enable-background="new 0 0 16 16" xml:space="preserve">
<path d="M14.8,3.7C14.8,3.7,14.8,3.7,14.8,3.7c0-0.1-0.1-0.2-0.1-0.3c-0.1-0.4-0.2-0.8-0.4-1.1c-0.7-1-1.8-1.6-2.9-1.9
	c-0.5-0.1-1-0.2-1.5-0.3C9.3,0.1,8.8,0,8.2,0C8,0,7.9,0,7.7,0C6.6,0,5.4,0,4.3,0.5c-1,0.4-1.9,1.2-2.3,2.2C1.3,3.3,0.8,4,0.6,4.9
	C0.5,6,0.2,7.1,0.1,8.2c-0.1,1.1-0.1,2.4,0.4,3.5c0.3,0.6,0.5,1.3,0.9,1.9c0.4,0.6,0.9,1.1,1.5,1.4c1.1,0.4,2.1,0.6,3.1,0.8
	C6.6,15.9,7.4,16,8.2,16c4.3,0,7.8-3.6,7.8-8C16,6.4,15.5,4.9,14.8,3.7z M9.3,11.3L7.6,8.7l-2.1,2.5H4.9l2.4-2.9L4.9,4.7h1.8
	l1.6,2.4l2-2.4h0.5L8.6,7.5h0l2.5,3.7H9.3z M8.3,7.8l2,3H9.5L7.8,8.4v0L7.6,8L5.6,5.2h0.8l1.6,2.3L8.3,7.8z"/>
</svg>
