<svg version="1.1" x="0px" y="0px" [--class--] viewBox="0 0 16 16" enable-background="new 0 0 16 16" xml:space="preserve">
<path fill="#FFFFFF" d="M14.11,26.052c-0.008,0-0.017-0.001-0.017-0.001c-0.013,0-0.017,0.001-0.021,0.001H14.11z"/>
<g>
  <path d="M10.897,7.141v0.021V7.141c-0.346-0.016-0.703,0.117-0.964,0.368C9.671,7.761,9.506,8.117,9.494,8.506
    C9.481,8.872,9.623,9.267,9.883,9.543c0.261,0.282,0.622,0.455,1.023,0.465c0.366,0.016,0.773-0.135,1.056-0.414
    c0.29-0.281,0.453-0.678,0.442-1.105c-0.012-0.382-0.192-0.794-0.485-1.039C11.631,7.194,11.245,7.078,10.897,7.141z M11.284,8.967
    c-0.129,0.111-0.299,0.165-0.454,0.152c-0.323-0.015-0.571-0.324-0.54-0.62c0.022-0.3,0.3-0.508,0.54-0.471l0.001,0.021V8.029
    c0.25-0.137,0.631,0.112,0.643,0.471C11.489,8.675,11.41,8.854,11.284,8.967z"/>
  <path d="M14.772,3.698c-0.002-0.005-0.004-0.01-0.006-0.015c-0.028-0.085-0.063-0.167-0.099-0.248
    c-0.09-0.398-0.228-0.785-0.449-1.108c-0.66-0.971-1.77-1.592-2.889-1.89C10.821,0.3,10.317,0.223,9.818,0.171
    C9.302,0.06,8.767,0,8.217,0c-0.17,0-0.336,0.015-0.503,0.026C6.628-0.034,5.4,0.028,4.266,0.513
    c-1.029,0.424-1.93,1.22-2.347,2.208C1.292,3.272,0.782,4.014,0.635,4.933C0.467,6.024,0.192,7.06,0.064,8.204
    c-0.131,1.128-0.084,2.368,0.368,3.45c0.256,0.617,0.497,1.274,0.864,1.868c0.363,0.59,0.856,1.113,1.507,1.362
    c1.101,0.418,2.124,0.58,3.113,0.76C6.644,15.875,7.416,16,8.217,16c4.298,0,7.784-3.582,7.784-8
    C16.001,6.415,15.546,4.941,14.772,3.698z M13.676,8.928c-0.083,0.737-0.462,1.443-1.041,1.908c-0.57,0.471-1.34,0.696-2.07,0.616
    c-0.65-0.063-1.27-0.38-1.729-0.856c-0.149,0.209-0.297,0.427-0.442,0.641L8.189,11.54l-0.163-0.328
    C8,11.16,7.95,11.079,7.906,11.01l-0.143-0.213c-0.051-0.074-0.105-0.143-0.159-0.215c-0.46,0.48-1.083,0.791-1.733,0.861
    c-0.734,0.083-1.495-0.137-2.07-0.607c-0.579-0.463-0.973-1.16-1.068-1.904C2.634,8.212,2.813,7.459,3.22,6.869
    C3.143,6.52,2.962,6.167,2.735,5.881L2.562,5.664l0.269,0.002l1.677,0.013c1.097-0.714,2.4-0.988,3.667-0.989
    c1.28,0.008,2.581,0.326,3.647,1.067l1.781,0.019v0.021l0.016,0.014c-0.236,0.317-0.415,0.691-0.482,1.072
    C13.567,7.445,13.766,8.205,13.676,8.928z"/>
  <path d="M5.505,7.146v0.021L5.503,7.146C5.16,7.131,4.802,7.265,4.541,7.515c-0.263,0.251-0.428,0.607-0.44,0.997
    C4.088,8.878,4.23,9.272,4.49,9.55c0.261,0.282,0.623,0.454,1.024,0.464C5.879,10.029,6.288,9.879,6.57,9.6
    c0.29-0.281,0.454-0.678,0.442-1.104C7,8.112,6.819,7.701,6.526,7.456C6.239,7.201,5.853,7.084,5.505,7.146z M5.892,8.973
    c-0.125,0.11-0.305,0.166-0.445,0.152c-0.34-0.01-0.576-0.328-0.549-0.612C4.919,8.203,5.196,8,5.437,8.036l0.001,0.021V8.036
    c0.12-0.059,0.285-0.045,0.412,0.047c0.13,0.083,0.22,0.262,0.232,0.413C6.098,8.69,6.018,8.854,5.892,8.973z"/>
</g>
</svg>
