<svg version="1.1" x="0px" y="0px" [--class--] viewBox="0 0 16 16" enable-background="new 0 0 16 16" xml:space="preserve">
<path fill="#FFFFFF" d="M14.11,26.052c-0.008,0-0.017-0.001-0.017-0.001c-0.013,0-0.017,0.001-0.021,0.001H14.11z"/>
<g>
  <path d="M14.773,3.7c-0.002-0.006-0.005-0.011-0.007-0.017c-0.028-0.086-0.064-0.168-0.1-0.25
    c-0.091-0.397-0.228-0.783-0.448-1.106c-0.66-0.97-1.771-1.592-2.889-1.889c-0.508-0.137-1.012-0.214-1.511-0.266
    C9.303,0.061,8.767,0,8.217,0c-0.17,0-0.336,0.015-0.503,0.026c-1.085-0.06-2.313,0.002-3.448,0.487
    c-1.03,0.424-1.93,1.22-2.347,2.208C1.292,3.272,0.782,4.014,0.635,4.933C0.467,6.024,0.193,7.06,0.064,8.204
    c-0.131,1.128-0.084,2.368,0.369,3.45c0.256,0.618,0.496,1.274,0.863,1.868c0.364,0.59,0.857,1.113,1.507,1.361
    c1.101,0.419,2.124,0.581,3.114,0.76C6.644,15.875,7.417,16,8.217,16C12.516,16,16,12.419,16,8C16,6.416,15.546,4.942,14.773,3.7z
     M13.068,9.461c-0.108,0.586-0.438,1.154-0.973,1.474c-0.135,0.075-0.278,0.136-0.43,0.173s-0.314,0.048-0.45,0.046l-0.812,0.005
    l-1.623-0.012l-3.246-0.039c-0.614,0-1.166-0.396-1.462-0.904c-0.152-0.255-0.252-0.539-0.3-0.831
    C3.723,9.074,3.747,8.787,3.745,8.515l0.007-0.834c0.004-0.271-0.007-0.568,0.06-0.856c0.122-0.569,0.459-1.107,0.971-1.392
    c0.25-0.141,0.556-0.203,0.83-0.187l0.811,0.015l1.623,0.031c1.082,0.023,2.164,0.027,3.246,0.023
    c0.557-0.017,1.083,0.331,1.379,0.809c0.152,0.239,0.264,0.506,0.322,0.789c0.062,0.286,0.052,0.572,0.066,0.846l0.03,0.833
    C13.101,8.864,13.128,9.164,13.068,9.461z"/>
  <path d="M7.363,6.751L7.337,6.738L7.332,6.77c-0.075,0.417-0.116,0.834-0.15,1.252
    C7.15,8.439,7.135,8.856,7.141,9.273l0.005,0.391l0.312-0.201l2.065-1.331l0.184-0.118L9.523,7.912
    C8.809,7.515,8.083,7.139,7.363,6.751z"/>
</g>
</svg>
