<?xml version="1.0" encoding="UTF-8"?>
<!DOCTYPE svg PUBLIC "-//W3C//DTD SVG 1.1//EN" "http://www.w3.org/Graphics/SVG/1.1/DTD/svg11.dtd">
<svg version="1.1"
     id="id0" 
     xmlns="http://www.w3.org/2000/svg"
     xmlns:xlink="http://www.w3.org/1999/xlink"
     x="0px" y="0px" width="21px" height="21px" viewBox="0 0 21 21"
     enable-background="new 0 0 21 21" xml:space="preserve">
<g id="id1">
	<path fill="#1f374b"
           d="M20.723,19.643l-7.674-7.675c1.01-1.248,1.617-2.835,1.617-4.564c0-4.012-3.252-7.265-7.264-7.265   S0.139,3.392,0.139,7.404s3.252,7.264,7.264,7.264c1.73,0,3.318-0.607,4.564-1.618l7.674,7.675   c0.227,0.226,0.652,0.167,0.951-0.131C20.891,20.294,20.95,19.869,20.723,19.643z M7.403,13.154c-3.176,0-5.75-2.574-5.75-5.75   c0-3.177,2.574-5.751,5.75-5.751s5.75,2.574,5.75,5.751C13.153,10.58,10.579,13.154,7.403,13.154z"/>
</g>
</svg>
