<?xml version="1.0" encoding="utf-8"?>
<svg version="1.1" id="Capa_1" xmlns="http://www.w3.org/2000/svg" xmlns:xlink="http://www.w3.org/1999/xlink" x="0px" y="0px"
   viewBox="0 0 500 500" style="fill:#4d2f06;" xml:space="preserve">
<path d="M486.1,486.1c-9.6,9.6-22.3,14.5-34.9,14.5c-12.6,0-25.3-4.8-34.9-14.5l-70.5-70.5c28.3-17.6,52.2-41.6,69.9-69.9l70.5,70.5
  C505.4,435.5,505.4,466.8,486.1,486.1z M428.9,214.5c0,41.6-11.8,80.4-32.3,113.3c-17.4,27.9-41,51.5-68.9,68.9
  c-32.9,20.5-71.7,32.3-113.3,32.3C96,428.9,0,332.9,0,214.5S96,0,214.5,0S428.9,96,428.9,214.5z M353.8,284.9
  c10.9-21.6,16.7-45.6,16.7-70.4c0-41.7-16.2-80.9-45.7-110.3c-29.5-29.5-68.7-45.7-110.3-45.7s-80.9,16.2-110.3,45.7
  c-29.5,29.5-45.7,68.7-45.7,110.3c0,41.7,16.2,80.9,45.7,110.3c29.5,29.5,68.7,45.7,110.3,45.7c24.9,0,48.9-5.8,70.4-16.7
  c14.6-7.4,28-17.1,39.9-29C336.7,312.9,346.4,299.5,353.8,284.9z"/>
</svg>
