<svg version="1.1" x="0px" y="0px" [--class--] viewBox="0 0 16 16" enable-background="new 0 0 16 16" xml:space="preserve">
<g>
  <path d="M12,0H4C1.792,0,0,1.791,0,4v8c0,2.209,1.792,4,4,4h8c2.209,0,4-1.791,4-4V4C16,1.791,14.209,0,12,0z M15.5,12
    c0,1.93-1.57,3.5-3.5,3.5H4c-1.93,0-3.5-1.57-3.5-3.5V4c0-1.93,1.57-3.5,3.5-3.5h8c1.93,0,3.5,1.57,3.5,3.5V12z"/>
  <path d="M11.945,7.173l-0.113-0.09c-0.15-0.116-0.902,0.008-1.104-0.175c-0.145-0.133-0.165-0.372-0.209-0.694
    c-0.081-0.625-0.133-0.658-0.229-0.869C9.934,4.592,8.973,4.026,8.311,3.947h-1.79c-1.409,0-2.559,1.153-2.559,2.562v2.987
    c0,1.406,1.15,2.557,2.559,2.557h2.94c1.408,0,2.552-1.15,2.56-2.557l0.016-2.069l-0.023-0.113L11.945,7.173z M6.554,6.041h1.418
    c0.271,0,0.491,0.22,0.491,0.488c0,0.268-0.22,0.489-0.491,0.489H6.554c-0.271,0-0.491-0.222-0.491-0.489
    C6.063,6.26,6.283,6.041,6.554,6.041z M9.438,9.945H6.554c-0.271,0-0.491-0.221-0.491-0.486c0-0.27,0.219-0.488,0.491-0.488h2.883
    c0.269,0,0.488,0.219,0.488,0.488C9.926,9.725,9.706,9.945,9.438,9.945z"/>
</g>
</svg>
