<svg version="1.1" x="0px" y="0px" [--class--] viewBox="0 0 16 16" enable-background="new 0 0 16 16" xml:space="preserve">
<g>
  <path d="M12,0H4C1.791,0,0,1.791,0,4v8c0,2.209,1.791,4,4,4h8c2.209,0,4-1.791,4-4V4C16,1.791,14.209,0,12,0z M15.5,12
    c0,1.93-1.57,3.5-3.5,3.5H4c-1.93,0-3.5-1.57-3.5-3.5V4c0-1.93,1.57-3.5,3.5-3.5h8c1.93,0,3.5,1.57,3.5,3.5V12z"/>
  <circle cx="5.775" cy="8.001" r="1.774"/>
  <circle cx="10.226" cy="8.001" r="1.774"/>
</g>
</svg>
