<svg version="1.1" x="0px" y="0px" [--class--] viewBox="0 0 16 16" enable-background="new 0 0 16 16" xml:space="preserve">
<path d="M12,0.5c1.9,0,3.5,1.6,3.5,3.5v8c0,1.9-1.6,3.5-3.5,3.5H4c-1.9,0-3.5-1.6-3.5-3.5V4c0-1.9,1.6-3.5,3.5-3.5H12 M12,0H4
	C1.8,0,0,1.8,0,4v8c0,2.2,1.8,4,4,4h8c2.2,0,4-1.8,4-4V4C16,1.8,14.2,0,12,0L12,0z M11.1,11.2c0.1-0.2,0.1-0.5-0.2-0.6
	C7.8,8.6,4.2,9.7,4,9.7c-0.2,0.1-0.4,0.3-0.3,0.6c0.1,0.2,0.3,0.4,0.6,0.3c0,0,3.4-1,6.2,0.7c0.1,0,0.2,0.1,0.2,0.1
	C10.9,11.4,11.1,11.3,11.1,11.2z M12,9.2c0.2-0.3,0.1-0.6-0.2-0.8c-4-2.3-7.9-1-8.1-0.9C3.4,7.6,3.3,7.9,3.4,8.2
	c0.1,0.3,0.4,0.4,0.7,0.3c0,0,3.6-1.2,7.2,0.8c0.1,0.1,0.2,0.1,0.3,0.1C11.7,9.5,11.9,9.4,12,9.2z M13,6.9c0.2-0.3,0-0.8-0.3-0.9
	C8.2,3.6,3.5,5,3.4,5C3,5.2,2.8,5.5,2.9,5.9C3,6.3,3.4,6.5,3.8,6.4c0,0,4.3-1.3,8.4,0.9c0.1,0.1,0.2,0.1,0.3,0.1
	C12.7,7.3,12.9,7.1,13,6.9z"/>
</svg>
