<svg version="1.1" x="0px" y="0px" [--class--] viewBox="0 0 16 16" enable-background="new 0 0 16 16" xml:space="preserve">
<g>
	<path d="M12,0.5c1.9,0,3.5,1.6,3.5,3.5v8c0,1.9-1.6,3.5-3.5,3.5H4c-1.9,0-3.5-1.6-3.5-3.5V4c0-1.9,1.6-3.5,3.5-3.5H12 M12,0H4
		C1.8,0,0,1.8,0,4v8c0,2.2,1.8,4,4,4h8c2.2,0,4-1.8,4-4V4C16,1.8,14.2,0,12,0L12,0z"/>
	<path d="M11.8,5.3c-0.6-0.1-1-0.4-1.3-0.7C9.9,4,9.9,3.1,9.9,3.1H9.4H8.3c0,0,0,3.8,0,3.9c0,1,0,1.9,0,2.9
		c-0.1,0.7-0.6,1.3-1.4,1.3c-0.5,0-0.9-0.2-1.1-0.5c-0.2-0.2-0.3-0.5-0.3-0.9C5.4,9,6,8.4,6.8,8.4c0.2,0,0.3,0,0.4,0.1V6.7
		c-0.1,0-0.3,0-0.4,0c0,0-0.1,0-0.1,0c-1.7,0-3,1.4-3,3.1c0,0.9,0.4,1.7,0.9,2.2c0.6,0.6,1.3,0.9,2.2,0.9c1.2,0,2.2-0.7,2.8-1.7
		c0.5-1,0.4-2.1,0.4-3.2c0-0.5,0-1.1,0-1.6c1.3,0.9,2.4,0.7,2.4,0.7V5.4C12.1,5.4,11.9,5.4,11.8,5.3z"/>
</g>
</svg>
