<?xml version="1.0" encoding="UTF-8" standalone="no"?>
<!-- Generator: Adobe Illustrator 16.0.0, SVG Export Plug-In . SVG Version: 6.00 Build 0)  -->

<svg
   xmlns:dc="http://purl.org/dc/elements/1.1/"
   xmlns:cc="http://creativecommons.org/ns#"
   xmlns:rdf="http://www.w3.org/1999/02/22-rdf-syntax-ns#"
   xmlns:svg="http://www.w3.org/2000/svg"
   xmlns="http://www.w3.org/2000/svg"
   xmlns:sodipodi="http://sodipodi.sourceforge.net/DTD/sodipodi-0.dtd"
   xmlns:inkscape="http://www.inkscape.org/namespaces/inkscape"
   version="1.1"
   id="Capa_1"
   x="0px"
   y="0px"
   width="442.246px"
   height="442.246px"
   viewBox="0 0 442.246 442.246"
   style="enable-background:new 0 0 442.246 442.246;"
   xml:space="preserve"
   inkscape:version="0.91 r13725"
   sodipodi:docname="enlace.svg"><metadata
     id="metadata45"><rdf:RDF><cc:Work
         rdf:about=""><dc:format>image/svg+xml</dc:format><dc:type
           rdf:resource="http://purl.org/dc/dcmitype/StillImage" /><dc:title></dc:title></cc:Work></rdf:RDF></metadata><defs
     id="defs43" /><sodipodi:namedview
     pagecolor="#ffffff"
     bordercolor="#666666"
     borderopacity="1"
     objecttolerance="10"
     gridtolerance="10"
     guidetolerance="10"
     inkscape:pageopacity="0"
     inkscape:pageshadow="2"
     inkscape:window-width="1248"
     inkscape:window-height="672"
     id="namedview41"
     showgrid="false"
     inkscape:zoom="0.53363965"
     inkscape:cx="386.02829"
     inkscape:cy="221.123"
     inkscape:window-x="45"
     inkscape:window-y="34"
     inkscape:window-maximized="0"
     inkscape:current-layer="Capa_1" /><g
     id="g3"
     transform="matrix(0.57429996,0.57316123,-0.56671673,0.58083069,220.36773,-35.939799)"><g
       id="g5"><path
         d="m 409.657,32.474 c -43.146,-43.146 -113.832,-43.146 -156.978,0 l -84.763,84.762 c 29.07,-8.262 60.589,-6.12 88.129,6.732 l 44.063,-44.064 c 17.136,-17.136 44.982,-17.136 62.118,0 17.136,17.136 17.136,44.982 0,62.118 l -55.386,55.386 -36.414,36.414 c -17.136,17.136 -44.982,17.136 -62.119,0 l -47.43,47.43 c 11.016,11.017 23.868,19.278 37.332,24.48 36.415,14.382 78.643,8.874 110.467,-16.219 3.06,-2.447 6.426,-5.201 9.18,-8.262 l 57.222,-57.222 34.578,-34.578 c 43.453,-43.145 43.453,-113.525 10e-4,-156.977 z"
         id="path7"
         inkscape:connector-curvature="0" /><path
         d="m 184.135,320.114 -42.228,42.228 c -17.136,17.137 -44.982,17.137 -62.118,0 -17.136,-17.136 -17.136,-44.981 0,-62.118 l 91.8,-91.799 c 17.136,-17.136 44.982,-17.136 62.119,0 l 47.43,-47.43 c -11.016,-11.016 -23.868,-19.278 -37.332,-24.48 -38.25,-15.3 -83.232,-8.262 -115.362,20.502 -1.53,1.224 -3.06,2.754 -4.284,3.978 l -91.8,91.799 c -43.146,43.146 -43.146,113.832 0,156.979 43.146,43.146 113.832,43.146 156.978,0 l 82.927,-83.845 c -42.23,9.791 -52.022,8.568 -88.13,-5.814 z"
         id="path9"
         inkscape:connector-curvature="0" /></g></g><g
     id="g11" /><g
     id="g13" /><g
     id="g15" /><g
     id="g17" /><g
     id="g19" /><g
     id="g21" /><g
     id="g23" /><g
     id="g25" /><g
     id="g27" /><g
     id="g29" /><g
     id="g31" /><g
     id="g33" /><g
     id="g35" /><g
     id="g37" /><g
     id="g39" /></svg>