<svg version="1.1" x="0px" y="0px" [--class--] viewBox="0 0 16 16" enable-background="new 0 0 16 16" xml:space="preserve">
<path d="M8,0C3.6,0,0,3.6,0,8c0,4.4,3.6,8,8,8c4.4,0,8-3.6,8-8C16,3.6,12.4,0,8,0z M10.9,9.9L10.9,9.9c0,0.2,0,0.3,0,0.5
	c0,0.2-0.1,0.3-0.2,0.4c-0.1,0.1-0.2,0.2-0.3,0.3c-0.1,0.1-0.3,0.1-0.4,0.2c-0.3,0.1-0.5,0.1-0.7,0c-0.2,0-0.3-0.1-0.4-0.2
	c-0.2-0.2-0.3-0.4-0.3-0.6c0-0.3,0.1-0.6,0.3-0.8C8.8,9.6,9,9.5,9.1,9.5c0.2-0.1,0.4-0.1,0.7-0.2c0.1,0,0.2,0,0.2,0
	c0.1,0,0.2,0,0.3-0.1c0.1-0.1,0.1-0.2,0.1-0.3V6.1c0-0.2-0.1-0.3-0.3-0.2c-0.1,0-3.2,0.6-3.2,0.6c-0.2,0-0.2,0.1-0.2,0.3v4
	c0,0.2,0,0.3,0,0.5c0,0.2-0.1,0.3-0.2,0.4c-0.1,0.1-0.2,0.2-0.3,0.3C6,12,5.9,12.1,5.7,12.1c-0.3,0.1-0.5,0.1-0.7,0
	c-0.2,0-0.3-0.1-0.4-0.2c-0.2-0.2-0.3-0.4-0.3-0.6c0-0.3,0.1-0.6,0.3-0.8c0.1-0.1,0.2-0.2,0.4-0.3c0.2-0.1,0.4-0.1,0.7-0.2
	c0.1,0,0.2,0,0.2,0c0.1,0,0.2,0,0.3-0.1c0.1-0.1,0.1-0.2,0.1-0.3c0-0.8,0-4.6,0-4.6c0-0.1,0-0.1,0-0.1c0-0.1,0.1-0.2,0.1-0.2
	c0.1,0,0.1-0.1,0.2-0.1l0,0l3.7-0.7c0,0,0.3-0.1,0.3-0.1c0.2,0,0.3,0.1,0.3,0.3V9.9z"/>
</svg>
