<?xml version="1.0" encoding="UTF-8"?>
<svg version="1.1" id="Capa_1" xmlns="http://www.w3.org/2000/svg" xmlns:xlink="http://www.w3.org/1999/xlink" x="0px" y="0px" viewBox="0 0 70 70" style="fill: #fff;" xml:space="preserve">
<path d="M58.5,10.8C52.2,4.5,43.8,1,34.9,1s-17.3,3.5-23.6,9.8S1.5,25.5,1.5,34.4S5,51.7,11.3,58s14.7,9.8,23.6,9.8   c8.9,0,17.3-3.5,23.6-9.8c6.3-6.3,9.8-14.7,9.8-23.6C68.2,25.5,64.8,17.1,58.5,10.8z M34.9,18.1c4.3,0,7.9,3.5,7.9,7.9   s-3.5,7.9-7.9,7.9S27,30.3,27,26S30.5,18.1,34.9,18.1z M22.9,44.7c3.2-3.2,7.4-4.9,11.9-4.9s8.7,1.7,11.9,4.9c3.1,3,4.8,7,5.1,11.2   c-1.9,1.5-4,2.8-6.3,3.7c-3.4,1.4-7,2.2-10.7,2.2c-3.7,0-7.3-0.7-10.7-2.2c-2.3-1-4.4-2.2-6.3-3.7C18.1,51.7,19.9,47.7,22.9,44.7z    M48.7,26c0-7.6-6.2-13.8-13.8-13.8S21,18.4,21,26c0,3.8,1.6,7.4,4.2,9.9c-2.5,1.1-4.7,2.7-6.7,4.7c-2.8,2.8-4.8,6.3-5.9,10   c-1.3-1.7-2.3-3.6-3.2-5.6c-1.4-3.4-2.2-7-2.2-10.7c0-3.7,0.7-7.3,2.2-10.7c1.4-3.3,3.4-6.2,5.9-8.7c2.5-2.5,5.5-4.5,8.7-5.9   c3.4-1.4,7-2.2,10.7-2.2c3.7,0,7.3,0.7,10.7,2.2c3.3,1.4,6.2,3.4,8.7,5.9c2.5,2.5,4.5,5.5,5.9,8.7c1.4,3.4,2.2,7,2.2,10.7   c0,3.7-0.7,7.3-2.2,10.7c-0.8,2-1.9,3.9-3.2,5.6c-1.1-3.8-3.1-7.2-5.9-10c-2-2-4.2-3.5-6.7-4.7C47.1,33.4,48.7,29.8,48.7,26z"/>
</svg>
