<svg version="1.1" x="0px" y="0px" [--class--] viewBox="0 0 16 16" enable-background="new 0 0 16 16" xml:space="preserve">
<g>
  <path d="M8,0C3.582,0,0,3.582,0,8c0,4.418,3.582,8,8,8c4.418,0,8-3.582,8-8C16,3.582,12.418,0,8,0z M8,15.5
    c-4.136,0-7.5-3.364-7.5-7.5S3.864,0.5,8,0.5s7.5,3.364,7.5,7.5S12.136,15.5,8,15.5z"/>
  <path d="M8.593,5.761c0-0.312,0.207-0.385,0.353-0.385s0.893,0,0.893,0V4.005L8.607,4C7.242,4,6.932,5.023,6.932,5.677v0.914h-0.79
    v1.412h0.79c0,1.813,0,3.997,0,3.997h1.661c0,0,0-2.205,0-3.997h1.121l0.146-1.412H8.593V5.761z"/>
</g>
</svg>
