<svg version="1.1" x="0px" y="0px" [--class--] viewBox="0 0 16 16" enable-background="new 0 0 16 16" xml:space="preserve">
<g>
  <path d="M8,0C3.582,0,0,3.582,0,8c0,4.418,3.582,8,8,8c4.419,0,8-3.582,8-8C16,3.582,12.419,0,8,0z M8,15.5
    c-4.136,0-7.5-3.364-7.5-7.5S3.864,0.5,8,0.5s7.5,3.364,7.5,7.5S12.136,15.5,8,15.5z"/>
  <path d="M11.008,3.979H4.994c-0.56,0-1.014,0.454-1.014,1.013v6.014c0,0.56,0.455,1.014,1.014,1.014h6.014
    c0.559,0,1.013-0.454,1.013-1.014V4.993C12.021,4.434,11.566,3.979,11.008,3.979z M8,6.822C8.65,6.822,9.178,7.351,9.178,8
    S8.65,9.178,8,9.178C7.351,9.178,6.822,8.649,6.822,8S7.351,6.822,8,6.822z M11.086,10.578c0,0.279-0.261,0.506-0.541,0.506h-5.07
    c-0.281,0-0.561-0.227-0.561-0.506V8.043c0-0.281,0.28-0.511,0.561-0.511h0.283c0.052,0,0.104,0.023,0.138,0.063
    c0.036,0.041,0.051,0.093,0.045,0.146C5.931,7.826,5.924,7.912,5.924,8c0,1.144,0.932,2.075,2.075,2.075
    c1.145,0,2.077-0.932,2.077-2.075c0-0.088-0.006-0.174-0.018-0.258c-0.007-0.053,0.009-0.105,0.045-0.146
    c0.035-0.041,0.086-0.063,0.139-0.063h0.303c0.28,0,0.541,0.229,0.541,0.511V10.578z M11.086,5.903c0,0.28-0.227,0.508-0.508,0.508
    h-0.482c-0.279,0-0.507-0.228-0.507-0.508V5.421c0-0.279,0.228-0.506,0.507-0.506h0.482c0.281,0,0.508,0.227,0.508,0.506V5.903z"/>
</g>
</svg>
