<svg version="1.1" x="0px" y="0px" [--class--] viewBox="0 0 16 16" enable-background="new 0 0 16 16" xml:space="preserve">
<g>
  <path d="M8,0C3.582,0,0,3.582,0,8c0,4.418,3.582,8,8,8c4.418,0,8-3.582,8-8C16,3.582,12.418,0,8,0z M8,15.499
    c-4.135,0-7.499-3.364-7.499-7.5c0-4.134,3.364-7.499,7.499-7.499c4.135,0,7.499,3.364,7.499,7.499
    C15.498,12.135,12.135,15.499,8,15.499z"/>
  <path d="M8.415,4.008c-2.188,0-3.292,1.569-3.292,2.877c0,0.792,0.3,1.497,0.942,1.759c0.105,0.043,0.201,0.002,0.231-0.115
    C6.318,8.448,6.368,8.246,6.39,8.16c0.031-0.116,0.019-0.156-0.066-0.257C6.139,7.685,6.021,7.401,6.021,7
    c0-1.164,0.87-2.206,2.267-2.206c1.236,0,1.916,0.755,1.916,1.765c0,1.327-0.587,2.448-1.459,2.448
    c-0.482,0-0.843-0.398-0.728-0.887c0.139-0.583,0.406-1.213,0.406-1.635c0-0.376-0.202-0.691-0.621-0.691
    c-0.493,0-0.889,0.509-0.889,1.192c0,0.435,0.147,0.729,0.147,0.729s-0.504,2.136-0.592,2.509
    c-0.176,0.745-0.027,1.658-0.014,1.751c0.008,0.054,0.078,0.067,0.11,0.025c0.045-0.059,0.631-0.782,0.832-1.507
    C7.452,10.289,7.72,9.229,7.72,9.229c0.16,0.306,0.627,0.574,1.125,0.574c1.479,0,2.485-1.349,2.485-3.156
    C11.33,5.281,10.172,4.008,8.415,4.008z"/>
</g>
</svg>
