<svg version="1.1" x="0px" y="0px" [--class--] viewBox="0 0 16 16" enable-background="new 0 0 16 16" xml:space="preserve">
<g>
	<path d="M8,0.5c4.1,0,7.5,3.4,7.5,7.5s-3.4,7.5-7.5,7.5S0.5,12.1,0.5,8S3.9,0.5,8,0.5 M8,0C3.6,0,0,3.6,0,8s3.6,8,8,8s8-3.6,8-8
		S12.4,0,8,0L8,0z"/>
	<path d="M11.5,5.6c-0.5-0.1-0.9-0.4-1.2-0.6C9.7,4.3,9.7,3.5,9.7,3.5H9.3H8.2c0,0,0,3.5,0,3.6c0,0.9,0,1.7,0,2.6
		c-0.1,0.7-0.6,1.2-1.3,1.2c-0.4,0-0.8-0.2-1-0.5c-0.2-0.2-0.3-0.5-0.3-0.8c0-0.7,0.6-1.3,1.3-1.3c0.1,0,0.3,0,0.4,0.1V6.8
		c-0.1,0-0.3,0-0.4,0c0,0-0.1,0-0.1,0c-1.5,0-2.8,1.3-2.8,2.9c0,0.8,0.3,1.5,0.9,2c0.5,0.5,1.2,0.8,2,0.8c1.1,0,2-0.6,2.5-1.6
		C9.9,10,9.8,9,9.8,8c0-0.5,0-1,0-1.5c1.2,0.8,2.2,0.7,2.2,0.7V5.6C11.8,5.6,11.6,5.6,11.5,5.6z"/>
</g>
</svg>
