<svg version="1.1" x="0px" y="0px" [--class--] viewBox="0 0 16 16" enable-background="new 0 0 16 16" xml:space="preserve">
<path d="M15.5,0.5v15h-15v-15H15.5 M16,0H0v16h16V0L16,0z"/>
<path d="M11.007,3.979H4.993c-0.56,0-1.014,0.454-1.014,1.013v6.014c0,0.561,0.454,1.015,1.014,1.015h6.014
  c0.559,0,1.014-0.454,1.014-1.015V4.992C12.021,4.433,11.565,3.979,11.007,3.979L11.007,3.979z M8,6.821
  c0.65,0,1.178,0.53,1.178,1.179c0,0.648-0.528,1.178-1.178,1.178C7.351,9.178,6.821,8.648,6.821,8C6.821,7.351,7.351,6.821,8,6.821
  L8,6.821z M11.086,10.577c0,0.28-0.261,0.508-0.541,0.508h-5.07c-0.281,0-0.561-0.228-0.561-0.508V8.043
  c0-0.281,0.279-0.511,0.561-0.511h0.284c0.052,0,0.103,0.023,0.138,0.062c0.037,0.041,0.052,0.094,0.045,0.146
  C5.931,7.825,5.924,7.912,5.924,8c0,1.144,0.932,2.074,2.076,2.074c1.145,0,2.077-0.931,2.077-2.074
  c0-0.088-0.007-0.175-0.018-0.259c-0.007-0.052,0.009-0.105,0.045-0.146c0.035-0.041,0.086-0.062,0.139-0.062h0.303
  c0.28,0,0.541,0.229,0.541,0.511V10.577z M11.086,5.902L11.086,5.902c0,0.281-0.228,0.508-0.508,0.508h-0.482
  c-0.279,0-0.507-0.227-0.507-0.508V5.42c0-0.28,0.228-0.505,0.507-0.505h0.482c0.28,0,0.508,0.226,0.508,0.505V5.902z M11.086,5.902
  "/>
</svg>
