<svg version="1.1" x="0px" y="0px" [--class--] viewBox="0 0 16 16" enable-background="new 0 0 16 16" xml:space="preserve">
<g>
  <path fill-rule="evenodd" clip-rule="evenodd" d="M0,0v16h16V0H0z M15.5,15.5h-15v-15h15V15.5z"/>
  <path fill-rule="evenodd" clip-rule="evenodd" d="M6.644,7.457c0.086,1.559-0.279,3.048,0.543,3.932
    c0.638,0.685,2.321,0.909,3.118,0.067c-0.156-0.296-0.269-0.636-0.34-1.017c-1.96,0.767-1.518-1.766-1.422-3.05
    c0.474,0,0.947,0,1.422,0c0-0.452,0-0.904,0-1.356c-0.475,0-0.948,0-1.422,0c0-0.678,0-1.356,0-2.033c-0.407,0-0.814,0-1.22,0
    C7.146,5.111,6.627,5.881,5.695,6.236c0,0.385,0,0.769,0,1.153C5.99,7.433,6.46,7.301,6.644,7.457z"/>
</g>
</svg>
