<?xml version="1.0" encoding="iso-8859-1"?>
<svg version="1.1" id="Capa_1" xmlns="http://www.w3.org/2000/svg" xmlns:xlink="http://www.w3.org/1999/xlink" x="0px" y="0px"
	 viewBox="0 0 78.769 78.769" style="enable-background:new 0 0 78.769 78.769;" xml:space="preserve">
<path style="fill:#C96;" d="M59.139,60.739c-4.971,0-9.016,4.044-9.016,9.018c0.006,4.963,4.05,9.006,9.014,9.013
	c0,0,0.001,0,0.002,0c4.971,0,9.016-4.044,9.016-9.015C68.154,64.784,64.11,60.739,59.139,60.739z M61.089,71.704
	c-0.521,0.521-1.213,0.808-1.95,0.808c-1.52,0-2.758-1.237-2.758-2.755c0.002-1.518,1.238-2.756,2.758-2.761
	c1.52,0,2.758,1.237,2.758,2.759C61.896,70.491,61.61,71.183,61.089,71.704z M33.693,60.739c-4.971,0-9.016,4.044-9.016,9.018
	c0.006,4.963,4.05,9.006,9.014,9.013c0,0,0.001,0,0.002,0c4.971,0,9.016-4.044,9.016-9.015
	C42.708,64.784,38.664,60.739,33.693,60.739z M35.643,71.704c-0.521,0.521-1.213,0.808-1.95,0.808c-1.52,0-2.758-1.237-2.758-2.755
	c0.002-1.518,1.238-2.756,2.758-2.761c1.52,0,2.758,1.237,2.758,2.759C36.45,70.491,36.164,71.183,35.643,71.704z M78.189,12.743
	c-0.586-0.851-1.539-1.359-2.548-1.359h-54.86l-0.461-3.013C19.61,3.593,15.564,0,10.908,0c-0.012,0-0.026,0-0.038,0H3.128
	C1.403,0,0,1.455,0,3.242s1.403,3.241,3.128,3.241h7.748c0.003,0,0.007,0,0.011,0c1.609,0,3.006,1.239,3.252,2.895l6.126,40.095
	c0.722,4.857,4.681,8.372,9.413,8.372c0.012,0,0.026,0,0.038,0h37.875c1.725,0,3.129-1.455,3.129-3.242s-1.404-3.242-3.129-3.242
	H29.71c-0.005,0-0.009,0-0.013,0c-1.608,0-3.003-1.239-3.249-2.895l-0.701-4.589h36.615c4.072-0.002,7.705-2.682,9.038-6.668
	l7.196-21.517C78.928,14.703,78.778,13.603,78.189,12.743z M65.488,33.863c-0.462,1.332-1.719,2.226-3.128,2.227H24.755
	l-2.984-18.845l49.475,0.001L65.488,33.863z"/>
</svg>
