<?xml version="1.0" encoding="UTF-8" standalone="no"?>
<svg
   xmlns:dc="http://purl.org/dc/elements/1.1/"
   xmlns:cc="http://creativecommons.org/ns#"
   xmlns:rdf="http://www.w3.org/1999/02/22-rdf-syntax-ns#"
   xmlns:svg="http://www.w3.org/2000/svg"
   xmlns="http://www.w3.org/2000/svg"
   height="19.003071"
   width="97.002182"
   version="1.1"
   viewBox="0 0 97.002182 19.00307"
   data-name="Capa 1"
   id="Capa_1">
  <defs
     id="defs86">
    <style
       id="style84">.cls-1{fill:#2888b2;}.cls-2{fill:#6eb8ce;}.cls-3{fill:#666;}.cls-4{fill:#656666;}</style>
  </defs>
  <title
     id="title88">logo triwus</title>
  <path
     style="fill:#ffffff"
     id="path90"
     d="m 8.0905148,10.520138 h -0.72 a 8.08,8.08 0 0 0 -7.36999998488,8.14 v 0 a 8.12,8.12 0 0 0 8.08999998488,-8.14 z"
     class="cls-1" />
  <path
     style="fill:#ffffff"
     id="path92"
     d="m 7.3705148,10.520138 h 0.72 A 8.12,8.12 0 0 0 5.1481512e-4,2.5001384 8.09,8.09 0 0 0 7.3705148,10.520138 Z"
     class="cls-2" />
  <path
     style="fill:#ffffff"
     id="path94"
     d="m 8.8005148,10.520138 h -0.71 v 0.06 a 8.08,8.08 0 0 0 8.0800002,8.08 v -0.09 a 8.08,8.08 0 0 0 -7.3700002,-8.05 z"
     class="cls-2" />
  <path
     style="fill:#ffffff"
     id="path96"
     d="M 16.170515,2.5001384 A 8.12,8.12 0 0 0 8.0905148,10.500138 h 0.71 A 8.09,8.09 0 0 0 16.170515,2.5001384 Z"
     class="cls-1" />
  <path
     style="fill:#ffffff"
     id="path98"
     d="m 22.070515,5.2701384 h 0.38 v -2.07 c 0,-0.55 0,-1 0,-1.3 a 2,2 0 0 1 0.25,-0.82 1.63,1.63 0 0 1 1.46,-0.79000002 1.69,1.69 0 0 1 1.19,0.49 1.56,1.56 0 0 1 0.45,0.80000002 7.76,7.76 0 0 1 0.09,1.35 v 2.34 h 1.26 a 1.63,1.63 0 0 1 1.12,0.35 1.15,1.15 0 0 1 0.38,0.89 1,1 0 0 1 -0.55,1 3.6,3.6 0 0 1 -1.57,0.27 h -0.64 v 6.3299996 a 9.66,9.66 0 0 0 0.11,1.21 1.32,1.32 0 0 0 0.3,0.71 1,1 0 0 0 0.8,0.27 3.7,3.7 0 0 0 0.82,-0.11 4.26,4.26 0 0 1 0.81,-0.1 1,1 0 0 1 0.75,0.33 1.13,1.13 0 0 1 0.33,0.83 1.37,1.37 0 0 1 -0.91,1.27 6,6 0 0 1 -2.61,0.44 4.5,4.5 0 0 1 -2.44,-0.54 2.48,2.48 0 0 1 -1.09,-1.5 10.27,10.27 0 0 1 -0.26,-2.56 V 7.7501384 h -0.5 a 1.62,1.62 0 0 1 -1.14,-0.35 1.14,1.14 0 0 1 -0.39,-0.89 1.11,1.11 0 0 1 0.41,-0.89 1.8,1.8 0 0 1 1.19,-0.35 z"
     class="cls-3" />
  <path
     style="fill:#ffffff"
     id="path100"
     d="m 34.440515,14.000138 v 2.88 a 2.21,2.21 0 0 1 -0.44,1.56 1.65,1.65 0 0 1 -1.3,0.56 1.54,1.54 0 0 1 -1.22,-0.53 2.24,2.24 0 0 1 -0.48,-1.6 V 7.2901384 c 0,-1.55 0.56,-2.29 1.67,-2.29 a 1.4,1.4 0 0 1 1.24,0.54 3,3 0 0 1 0.42,1.6 5.94,5.94 0 0 1 1.26,-1.6 2.64,2.64 0 0 1 1.74,-0.54 4.44,4.44 0 0 1 2.1,0.54 1.62,1.62 0 0 1 1,1.44 1.37,1.37 0 0 1 -0.43,1.02 1.36,1.36 0 0 1 -0.94,0.41 4.11,4.11 0 0 1 -0.91,-0.24 4.45,4.45 0 0 0 -1.28,-0.23 1.85,1.85 0 0 0 -1.24,0.4 2.47,2.47 0 0 0 -0.74,1.18 8.15,8.15 0 0 0 -0.37,1.8599996 c -0.05,0.7 -0.08,1.62 -0.08,2.62 z"
     class="cls-3" />
  <path
     style="fill:#ffffff"
     id="path102"
     d="m 44.070515,3.3701384 a 1.84,1.84 0 0 1 -1.23,-0.44 1.58,1.58 0 0 1 -0.51,-1.25 1.57,1.57 0 0 1 0.53,-1.21000002 1.75,1.75 0 0 1 1.21,-0.47000000421 1.8,1.8 0 0 1 1.19,0.43000000421 1.53,1.53 0 0 1 0.51,1.25000002 1.56,1.56 0 0 1 -0.5,1.24 1.76,1.76 0 0 1 -1.2,0.45 z m 1.7,3.55 v 9.9999996 a 2.2,2.2 0 0 1 -0.49,1.56 1.6,1.6 0 0 1 -1.28,0.52 1.54,1.54 0 0 1 -1.22,-0.54 2.27,2.27 0 0 1 -0.48,-1.55 V 7.0001384 a 2.2,2.2 0 0 1 0.48,-1.54 1.58,1.58 0 0 1 1.22,-0.46 1.66,1.66 0 0 1 1.25,0.51 2,2 0 0 1 0.52,1.41 z"
     class="cls-3" />
  <path
     style="fill:#ffffff"
     id="path104"
     d="m 51.470515,7.1101384 2.25,7.6899996 2,-7.1499996 c 0.22,-0.74 0.38,-1.26 0.49,-1.53 a 2,2 0 0 1 0.59,-0.78 1.75,1.75 0 0 1 1.2,-0.34 1.78,1.78 0 0 1 1.2,0.37 2.07,2.07 0 0 1 0.61,0.81 c 0.12,0.29 0.29,0.79 0.5,1.5 l 2,7.1499996 2.27,-7.6899996 c 0.15,-0.55 0.27,-1 0.36,-1.2 a 1.68,1.68 0 0 1 0.47,-0.66 1.4,1.4 0 0 1 1,-0.28 1.5,1.5 0 0 1 1.07,0.43 1.33,1.33 0 0 1 0.45,1 5.29,5.29 0 0 1 -0.37,1.57 l -2.81,8.2399996 c -0.24,0.7 -0.43,1.2 -0.57,1.51 a 2.22,2.22 0 0 1 -0.64,0.84 2.14,2.14 0 0 1 -2.42,0 2.5,2.5 0 0 1 -0.66,-1 c -0.14,-0.37 -0.3,-0.87 -0.46,-1.47 l -2,-6.6899996 -1.9,6.7099996 a 8.65,8.65 0 0 1 -0.82,2.11 1.71,1.71 0 0 1 -1.56,0.71 2,2 0 0 1 -1,-0.22 2,2 0 0 1 -0.66,-0.63 4.87,4.87 0 0 1 -0.47,-1 c -0.13,-0.37 -0.24,-0.67 -0.31,-0.89 l -2.72,-8.2199996 a 5.83,5.83 0 0 1 -0.42,-1.61 1.36,1.36 0 0 1 0.45,-1 1.43,1.43 0 0 1 1.08,-0.39 1.27,1.27 0 0 1 1.16,0.48 7.16,7.16 0 0 1 0.64,1.63 z"
     class="cls-3" />
  <path
     style="fill:#ffffff"
     id="path106"
     d="m 79.260515,17.000138 v -0.44 a 7.33,7.33 0 0 1 -1.26,1.33 4.75,4.75 0 0 1 -1.49,0.79 6.05,6.05 0 0 1 -1.84,0.26 4.79,4.79 0 0 1 -2.23,-0.52 3.84,3.84 0 0 1 -1.58,-1.42 6.46,6.46 0 0 1 -0.64,-3.16 V 7.0001384 a 2.22,2.22 0 0 1 0.47,-1.54 1.58,1.58 0 0 1 1.23,-0.46 1.65,1.65 0 0 1 1.26,0.51 2.2,2.2 0 0 1 0.48,1.49 v 5.5099996 a 8.72,8.72 0 0 0 0.2,2 2.45,2.45 0 0 0 0.73,1.28 2.11,2.11 0 0 0 1.42,0.46 3,3 0 0 0 1.64,-0.52 3,3 0 0 0 1.12,-1.35 11,11 0 0 0 0.29,-3.2 V 7.0001384 a 2.2,2.2 0 0 1 0.48,-1.54 1.63,1.63 0 0 1 1.25,-0.46 1.58,1.58 0 0 1 1.21,0.48 2.22,2.22 0 0 1 0.49,1.52 v 9.9999996 a 2.12,2.12 0 0 1 -0.49,1.47 1.48,1.48 0 0 1 -1.15,0.49 1.52,1.52 0 0 1 -1.17,-0.51 2,2 0 0 1 -0.42,-1.45 z"
     class="cls-3" />
  <path
     style="fill:#ffffff"
     id="path108"
     d="m 97.000515,14.460138 a 4.24,4.24 0 0 1 -0.69,2.44 4.29,4.29 0 0 1 -2,1.54 9.18,9.18 0 0 1 -3.31,0.56 8.07,8.07 0 0 1 -3.18,-0.57 4.61,4.61 0 0 1 -2,-1.41 2.87,2.87 0 0 1 -0.63,-1.71 1.31,1.31 0 0 1 0.4,-1 1.39,1.39 0 0 1 1,-0.41 1.21,1.21 0 0 1 0.84,0.27 3.09,3.09 0 0 1 0.55,0.74 3.79,3.79 0 0 0 1.27,1.38 3.84,3.84 0 0 0 2,0.45 2.86,2.86 0 0 0 1.75,-0.47 1.29,1.29 0 0 0 0.67,-1 1.44,1.44 0 0 0 -0.67,-1.38 8.72,8.72 0 0 0 -2.26,-0.79 17.78,17.78 0 0 1 -2.9,-0.93 4.69,4.69 0 0 1 -1.84,-1.28 2.91,2.91 0 0 1 -0.67,-1.9999996 3.49,3.49 0 0 1 0.67,-1.89 4.21,4.21 0 0 1 1.82,-1.46 6.9,6.9 0 0 1 2.88,-0.54 9.78,9.78 0 0 1 2.4,0.27 6.23,6.23 0 0 1 1.78,0.73 3.69,3.69 0 0 1 1.12,1 2,2 0 0 1 0.37,1.11 1.25,1.25 0 0 1 -0.4,1 1.52,1.52 0 0 1 -1.12,0.38 1.4,1.4 0 0 1 -0.91,-0.3 6.54,6.54 0 0 1 -0.85,-0.91 3.09,3.09 0 0 0 -0.92,-0.81 2.9,2.9 0 0 0 -1.43,-0.3 2.75,2.75 0 0 0 -1.55,0.4 1.13,1.13 0 0 0 -0.62,1 1.08,1.08 0 0 0 0.45,0.89 3.75,3.75 0 0 0 1.18,0.5399996 c 0.52,0.15 1.22,0.34 2.12,0.56 a 11.42,11.42 0 0 1 2.62,0.93 4.34,4.34 0 0 1 1.54,1.28 2.81,2.81 0 0 1 0.52,1.69 z"
     class="cls-3" />
  <metadata
     id="metadata263">
    <rdf:RDF>
      <cc:Work
         rdf:about="">
        <dc:title>logo triwus</dc:title>
        <dc:format>image/svg+xml</dc:format>
        <dc:type
           rdf:resource="http://purl.org/dc/dcmitype/StillImage" />
      </cc:Work>
    </rdf:RDF>
  </metadata>
</svg>
