<?xml version="1.0" encoding="UTF-8" standalone="no"?>
<svg
   id="Capa_1"
   data-name="Capa 1"
   viewBox="0 0 97 24.04"
   version="1.1"
   xmlns="http://www.w3.org/2000/svg"
   xmlns:svg="http://www.w3.org/2000/svg"
   xmlns:rdf="http://www.w3.org/1999/02/22-rdf-syntax-ns#"
   xmlns:cc="http://creativecommons.org/ns#"
   xmlns:dc="http://purl.org/dc/elements/1.1/">
  <defs
     id="defs86">
    <style
       id="style84">.cls-1{fill:#2888b2;}.cls-2{fill:#6eb8ce;}.cls-3{fill:#666;}.cls-4{fill:#656666;}</style>
  </defs>
  <title
     id="title88">logo triwus</title>
  <path
     class="cls-1"
     d="M8.09,10.52H7.37A8.08,8.08,0,0,0,0,18.66H0A8.12,8.12,0,0,0,8.09,10.52Z"
     id="path90"
     style="fill:#ffffff" />
  <path
     class="cls-2"
     d="M7.37,10.52h.72A8.12,8.12,0,0,0,0,2.5,8.09,8.09,0,0,0,7.37,10.52Z"
     id="path92"
     style="fill:#ffffff" />
  <path
     class="cls-2"
     d="M8.8,10.52H8.09v.06a8.08,8.08,0,0,0,8.08,8.08v-.09A8.08,8.08,0,0,0,8.8,10.52Z"
     id="path94"
     style="fill:#ffffff" />
  <path
     class="cls-1"
     d="M16.17,2.5a8.12,8.12,0,0,0-8.08,8H8.8A8.09,8.09,0,0,0,16.17,2.5Z"
     id="path96"
     style="fill:#ffffff" />
  <path
     class="cls-3"
     d="M22.07,5.27h.38V3.2c0-.55,0-1,0-1.3a2,2,0,0,1,.25-.82A1.63,1.63,0,0,1,24.16.29a1.69,1.69,0,0,1,1.19.49,1.56,1.56,0,0,1,.45.8,7.76,7.76,0,0,1,.09,1.35V5.27h1.26a1.63,1.63,0,0,1,1.12.35,1.15,1.15,0,0,1,.38.89,1,1,0,0,1-.55,1,3.6,3.6,0,0,1-1.57.27h-.64v6.33A9.66,9.66,0,0,0,26,15.32a1.32,1.32,0,0,0,.3.71,1,1,0,0,0,.8.27,3.7,3.7,0,0,0,.82-.11,4.26,4.26,0,0,1,.81-.1,1,1,0,0,1,.75.33,1.13,1.13,0,0,1,.33.83,1.37,1.37,0,0,1-.91,1.27,6,6,0,0,1-2.61.44,4.5,4.5,0,0,1-2.44-.54,2.48,2.48,0,0,1-1.09-1.5,10.27,10.27,0,0,1-.26-2.56V7.75H22a1.62,1.62,0,0,1-1.14-.35,1.14,1.14,0,0,1-.39-.89,1.11,1.11,0,0,1,.41-.89A1.8,1.8,0,0,1,22.07,5.27Z"
     id="path98"
     style="fill:#ffffff" />
  <path
     class="cls-3"
     d="M34.44,14v2.88A2.21,2.21,0,0,1,34,18.44,1.65,1.65,0,0,1,32.7,19a1.54,1.54,0,0,1-1.22-.53A2.24,2.24,0,0,1,31,16.87V7.29C31,5.74,31.56,5,32.67,5a1.4,1.4,0,0,1,1.24.54,3,3,0,0,1,.42,1.6,5.94,5.94,0,0,1,1.26-1.6A2.64,2.64,0,0,1,37.33,5a4.44,4.44,0,0,1,2.1.54,1.62,1.62,0,0,1,1,1.44A1.37,1.37,0,0,1,40,8a1.36,1.36,0,0,1-.94.41,4.11,4.11,0,0,1-.91-.24,4.45,4.45,0,0,0-1.28-.23,1.85,1.85,0,0,0-1.24.4,2.47,2.47,0,0,0-.74,1.18,8.15,8.15,0,0,0-.37,1.86C34.47,12.08,34.44,13,34.44,14Z"
     id="path100"
     style="fill:#ffffff" />
  <path
     class="cls-3"
     d="M44.07,3.37a1.84,1.84,0,0,1-1.23-.44,1.58,1.58,0,0,1-.51-1.25A1.57,1.57,0,0,1,42.86.47,1.75,1.75,0,0,1,44.07,0a1.8,1.8,0,0,1,1.19.43,1.53,1.53,0,0,1,.51,1.25,1.56,1.56,0,0,1-.5,1.24A1.76,1.76,0,0,1,44.07,3.37Zm1.7,3.55v10a2.2,2.2,0,0,1-.49,1.56A1.6,1.6,0,0,1,44,19a1.54,1.54,0,0,1-1.22-.54,2.27,2.27,0,0,1-.48-1.55V7a2.2,2.2,0,0,1,.48-1.54A1.58,1.58,0,0,1,44,5a1.66,1.66,0,0,1,1.25.51A2,2,0,0,1,45.77,6.92Z"
     id="path102"
     style="fill:#ffffff" />
  <path
     class="cls-3"
     d="M51.47,7.11l2.25,7.69,2-7.15c.22-.74.38-1.26.49-1.53a2,2,0,0,1,.59-.78A1.75,1.75,0,0,1,58,5a1.78,1.78,0,0,1,1.2.37,2.07,2.07,0,0,1,.61.81c.12.29.29.79.5,1.5l2,7.15,2.27-7.69c.15-.55.27-1,.36-1.2a1.68,1.68,0,0,1,.47-.66,1.4,1.4,0,0,1,1-.28,1.5,1.5,0,0,1,1.07.43,1.33,1.33,0,0,1,.45,1A5.29,5.29,0,0,1,67.56,8l-2.81,8.24c-.24.7-.43,1.2-.57,1.51a2.22,2.22,0,0,1-.64.84,2.14,2.14,0,0,1-2.42,0,2.5,2.5,0,0,1-.66-1c-.14-.37-.3-.87-.46-1.47L58,9.43l-1.9,6.71a8.65,8.65,0,0,1-.82,2.11,1.71,1.71,0,0,1-1.56.71,2,2,0,0,1-1-.22,2,2,0,0,1-.66-.63,4.87,4.87,0,0,1-.47-1c-.13-.37-.24-.67-.31-.89L48.56,8a5.83,5.83,0,0,1-.42-1.61,1.36,1.36,0,0,1,.45-1A1.43,1.43,0,0,1,49.67,5a1.27,1.27,0,0,1,1.16.48A7.16,7.16,0,0,1,51.47,7.11Z"
     id="path104"
     style="fill:#ffffff" />
  <path
     class="cls-3"
     d="M79.26,17v-.44A7.33,7.33,0,0,1,78,17.89a4.75,4.75,0,0,1-1.49.79,6.05,6.05,0,0,1-1.84.26,4.79,4.79,0,0,1-2.23-.52A3.84,3.84,0,0,1,70.86,17a6.46,6.46,0,0,1-.64-3.16V7a2.22,2.22,0,0,1,.47-1.54A1.58,1.58,0,0,1,71.92,5a1.65,1.65,0,0,1,1.26.51A2.2,2.2,0,0,1,73.66,7v5.51a8.72,8.72,0,0,0,.2,2,2.45,2.45,0,0,0,.73,1.28,2.11,2.11,0,0,0,1.42.46,3,3,0,0,0,1.64-.52,3,3,0,0,0,1.12-1.35,11,11,0,0,0,.29-3.2V7a2.2,2.2,0,0,1,.48-1.54A1.63,1.63,0,0,1,80.79,5,1.58,1.58,0,0,1,82,5.48,2.22,2.22,0,0,1,82.49,7V17A2.12,2.12,0,0,1,82,18.47a1.48,1.48,0,0,1-1.15.49,1.52,1.52,0,0,1-1.17-.51A2,2,0,0,1,79.26,17Z"
     id="path106"
     style="fill:#ffffff" />
  <path
     class="cls-3"
     d="M97,14.46a4.24,4.24,0,0,1-.69,2.44,4.29,4.29,0,0,1-2,1.54A9.18,9.18,0,0,1,91,19a8.07,8.07,0,0,1-3.18-.57,4.61,4.61,0,0,1-2-1.41,2.87,2.87,0,0,1-.63-1.71,1.31,1.31,0,0,1,.4-1,1.39,1.39,0,0,1,1-.41,1.21,1.21,0,0,1,.84.27,3.09,3.09,0,0,1,.55.74,3.79,3.79,0,0,0,1.27,1.38,3.84,3.84,0,0,0,2,.45A2.86,2.86,0,0,0,93,16.27a1.29,1.29,0,0,0,.67-1A1.44,1.44,0,0,0,93,13.89a8.72,8.72,0,0,0-2.26-.79,17.78,17.78,0,0,1-2.9-.93A4.69,4.69,0,0,1,86,10.89a2.91,2.91,0,0,1-.67-2A3.49,3.49,0,0,1,86,7a4.21,4.21,0,0,1,1.82-1.46A6.9,6.9,0,0,1,90.7,5a9.78,9.78,0,0,1,2.4.27A6.23,6.23,0,0,1,94.88,6,3.69,3.69,0,0,1,96,7a2,2,0,0,1,.37,1.11,1.25,1.25,0,0,1-.4,1,1.52,1.52,0,0,1-1.12.38,1.4,1.4,0,0,1-.91-.3,6.54,6.54,0,0,1-.85-.91,3.09,3.09,0,0,0-.92-.81,2.9,2.9,0,0,0-1.43-.3,2.75,2.75,0,0,0-1.55.4,1.13,1.13,0,0,0-.62,1,1.08,1.08,0,0,0,.45.89A3.75,3.75,0,0,0,90.2,10c.52.15,1.22.34,2.12.56a11.42,11.42,0,0,1,2.62.93,4.34,4.34,0,0,1,1.54,1.28A2.81,2.81,0,0,1,97,14.46Z"
     id="path108"
     style="fill:#ffffff" />
  <path
     class="cls-4"
     d="M.91,23.29H.57v.52a.26.26,0,0,1,0,.17A.18.18,0,0,1,.39,24,.17.17,0,0,1,.25,24a.26.26,0,0,1,0-.17V22.4a.22.22,0,0,1,.06-.17.25.25,0,0,1,.17-.05H.91a1.27,1.27,0,0,1,.32,0,.63.63,0,0,1,.2.1.57.57,0,0,1,.12.18.61.61,0,0,1,0,.24.51.51,0,0,1-.17.42A.74.74,0,0,1,.91,23.29Zm-.09-.83H.57V23H.82A.69.69,0,0,0,1,23a.25.25,0,0,0,.13-.09.29.29,0,0,0,.05-.17.25.25,0,0,0-.07-.19A.45.45,0,0,0,.82,22.46Z"
     id="path110"
     style="fill:#ffffff" />
  <path
     class="cls-4"
     d="M4.44,22.37V23.7h.75a.2.2,0,0,1,.14.05.14.14,0,0,1,0,.11.16.16,0,0,1,0,.11.26.26,0,0,1-.14,0H4.3A.23.23,0,0,1,4.12,24a.25.25,0,0,1,0-.17V22.37a.29.29,0,0,1,0-.17.19.19,0,0,1,.13-.05.22.22,0,0,1,.14.05A.29.29,0,0,1,4.44,22.37Z"
     id="path112"
     style="fill:#ffffff" />
  <path
     class="cls-4"
     d="M8.93,23.8l-.09-.23H8.1L8,23.8a.47.47,0,0,1-.09.19A.14.14,0,0,1,7.8,24,.21.21,0,0,1,7.68,24a.16.16,0,0,1,0-.12.25.25,0,0,1,0-.08l0-.11.47-1.19,0-.12a.34.34,0,0,1,.06-.12.27.27,0,0,1,.08-.07.25.25,0,0,1,.13,0,.28.28,0,0,1,.13,0,.27.27,0,0,1,.08.07.47.47,0,0,1,.05.1,1,1,0,0,1,.06.14l.48,1.18a.8.8,0,0,1,.05.2.16.16,0,0,1-.05.12.19.19,0,0,1-.13.05l-.07,0A.1.1,0,0,1,9,24a.56.56,0,0,1,0-.08A.69.69,0,0,1,8.93,23.8Zm-.74-.51h.55l-.27-.75Z"
     id="path114"
     style="fill:#ffffff" />
  <path
     class="cls-4"
     d="M12.73,22.48h-.4v1.33a.25.25,0,0,1-.05.17.18.18,0,0,1-.14.06A.16.16,0,0,1,12,24a.22.22,0,0,1,0-.17V22.48h-.41a.2.2,0,0,1-.14,0,.17.17,0,0,1,0-.22.21.21,0,0,1,.14,0h1.18a.2.2,0,0,1,.14,0,.16.16,0,0,1,.05.11.14.14,0,0,1-.05.11A.2.2,0,0,1,12.73,22.48Z"
     id="path116"
     style="fill:#ffffff" />
  <path
     class="cls-4"
     d="M16.32,23.8l-.09-.23h-.74l-.09.23a.74.74,0,0,1-.08.19.17.17,0,0,1-.12.05.21.21,0,0,1-.13-.05.21.21,0,0,1-.05-.12.25.25,0,0,1,0-.08l0-.11.47-1.19.05-.12a.67.67,0,0,1,.06-.12.27.27,0,0,1,.08-.07.28.28,0,0,1,.13,0,.25.25,0,0,1,.13,0,.27.27,0,0,1,.08.07.53.53,0,0,1,.06.1s0,.08.05.14l.48,1.18a.58.58,0,0,1,.06.2.17.17,0,0,1-.06.12.17.17,0,0,1-.12.05l-.08,0a.1.1,0,0,1-.05,0,.56.56,0,0,1-.05-.08A1,1,0,0,0,16.32,23.8Zm-.73-.51h.54l-.27-.75Z"
     id="path118"
     style="fill:#ffffff" />
  <path
     class="cls-4"
     d="M20.25,22.46h-.73v.47h.61a.17.17,0,0,1,.13,0,.14.14,0,0,1,0,.2.17.17,0,0,1-.13,0h-.61v.6c0,.08,0,.14-.05.17a.16.16,0,0,1-.13.06.15.15,0,0,1-.13-.06.22.22,0,0,1-.06-.17V22.4a.28.28,0,0,1,0-.13.16.16,0,0,1,.07-.07l.13,0h.87a.2.2,0,0,1,.14,0,.14.14,0,0,1,0,.2A.2.2,0,0,1,20.25,22.46Z"
     id="path120"
     style="fill:#ffffff" />
  <path
     class="cls-4"
     d="M23.68,22.15a1.07,1.07,0,0,1,.49.11.76.76,0,0,1,.31.33,1.12,1.12,0,0,1,.1.5,1.6,1.6,0,0,1,0,.39.92.92,0,0,1-.18.3.7.7,0,0,1-.28.19.92.92,0,0,1-.38.07A1,1,0,0,1,23.3,24a.8.8,0,0,1-.28-.2.87.87,0,0,1-.17-.3,1.21,1.21,0,0,1-.06-.38,1.23,1.23,0,0,1,.06-.39.75.75,0,0,1,.18-.3.82.82,0,0,1,.28-.19A1.06,1.06,0,0,1,23.68,22.15Zm.53.94a.75.75,0,0,0-.07-.35.44.44,0,0,0-.18-.22.51.51,0,0,0-.28-.08.65.65,0,0,0-.2,0,.52.52,0,0,0-.17.12.68.68,0,0,0-.1.21.79.79,0,0,0,0,.28.82.82,0,0,0,0,.28.53.53,0,0,0,.11.21.45.45,0,0,0,.16.12.46.46,0,0,0,.21,0,.48.48,0,0,0,.26-.07.46.46,0,0,0,.19-.22A1,1,0,0,0,24.21,23.09Z"
     id="path122"
     style="fill:#ffffff" />
  <path
     class="cls-4"
     d="M27.57,23.22h-.13v.59a.25.25,0,0,1-.05.17.16.16,0,0,1-.13.06.17.17,0,0,1-.14-.06.26.26,0,0,1-.05-.17V22.4a.26.26,0,0,1,.05-.17.3.3,0,0,1,.18-.05h.81a.62.62,0,0,1,.16,0,.56.56,0,0,1,.15.1.57.57,0,0,1,.11.16.58.58,0,0,1,0,.19.45.45,0,0,1-.12.33.61.61,0,0,1-.35.17.7.7,0,0,1,.19.16,1.06,1.06,0,0,1,.16.21,1.08,1.08,0,0,1,.11.21.34.34,0,0,1,0,.13.19.19,0,0,1,0,.07l-.06.06-.1,0a.17.17,0,0,1-.1,0,.27.27,0,0,1-.07-.08l-.09-.13L28,23.56a1.08,1.08,0,0,0-.14-.21.31.31,0,0,0-.13-.1A.35.35,0,0,0,27.57,23.22Zm.21-.76h-.34V23h.33l.23,0a.47.47,0,0,0,.14-.08.25.25,0,0,0,0-.16.28.28,0,0,0,0-.13.31.31,0,0,0-.11-.09Z"
     id="path124"
     style="fill:#ffffff" />
  <path
     class="cls-4"
     d="M31.7,23.73l-.29-1.16v1.26a.25.25,0,0,1-.05.16.17.17,0,0,1-.12.05.21.21,0,0,1-.13-.05.25.25,0,0,1,0-.16V22.38a.18.18,0,0,1,.06-.16.29.29,0,0,1,.17,0h.11a.3.3,0,0,1,.15,0,.11.11,0,0,1,.07.06,1,1,0,0,1,.05.16l.27,1,.26-1a.91.91,0,0,1,.06-.16.09.09,0,0,1,.06-.06.34.34,0,0,1,.15,0h.12a.29.29,0,0,1,.17,0,.18.18,0,0,1,.06.16v1.45a.25.25,0,0,1,0,.16.17.17,0,0,1-.24,0,.25.25,0,0,1,0-.16V22.57l-.29,1.16c0,.08,0,.13-.05.17a.15.15,0,0,1-.07.09A.17.17,0,0,1,32,24a.18.18,0,0,1-.11,0l-.07-.07a.3.3,0,0,1,0-.1Z"
     id="path126"
     style="fill:#ffffff" />
  <path
     class="cls-4"
     d="M36.55,23.8l-.08-.23h-.75l-.08.23a1.16,1.16,0,0,1-.09.19.17.17,0,0,1-.24,0,.17.17,0,0,1-.06-.12s0-.05,0-.08l.05-.11.46-1.19,0-.12a.67.67,0,0,1,.06-.12.27.27,0,0,1,.08-.07.28.28,0,0,1,.13,0,.25.25,0,0,1,.13,0,.31.31,0,0,1,.09.07l0,.1s0,.08,0,.14l.48,1.18a.58.58,0,0,1,.06.2.21.21,0,0,1-.05.12.21.21,0,0,1-.13.05l-.08,0a.1.1,0,0,1,0,0,.59.59,0,0,1,0-.08Zm-.73-.51h.55l-.28-.75Z"
     id="path128"
     style="fill:#ffffff" />
  <path
     class="cls-4"
     d="M42.43,22.18h.49a1.51,1.51,0,0,1,.32,0,.7.7,0,0,1,.24.13.94.94,0,0,1,.29.75,1.39,1.39,0,0,1,0,.3.85.85,0,0,1-.09.24.75.75,0,0,1-.15.2.54.54,0,0,1-.16.1.6.6,0,0,1-.19.06l-.23,0h-.48a.28.28,0,0,1-.15,0,.13.13,0,0,1-.07-.09.57.57,0,0,1,0-.14V22.4a.22.22,0,0,1,0-.17A.26.26,0,0,1,42.43,22.18Zm.15.29v1.24H43l.11,0a.31.31,0,0,0,.1-.05.71.71,0,0,0,.18-.55.73.73,0,0,0-.08-.4.33.33,0,0,0-.2-.17.85.85,0,0,0-.29,0Z"
     id="path130"
     style="fill:#ffffff" />
  <path
     class="cls-4"
     d="M47.47,22.46h-.83v.45h.77a.19.19,0,0,1,.12,0,.13.13,0,0,1,0,.1.12.12,0,0,1,0,.1.15.15,0,0,1-.12,0h-.77v.52h.86a.22.22,0,0,1,.13,0,.15.15,0,0,1,0,.22.22.22,0,0,1-.13,0h-1a.22.22,0,0,1-.17-.06s0-.09,0-.17V22.4a.51.51,0,0,1,0-.13.19.19,0,0,1,.08-.07l.12,0h1c.06,0,.11,0,.13,0a.13.13,0,0,1,0,.2S47.53,22.46,47.47,22.46Z"
     id="path132"
     style="fill:#ffffff" />
  <path
     class="cls-4"
     d="M54.51,23.43a.46.46,0,0,1,0,.19.61.61,0,0,1-.14.2.79.79,0,0,1-.23.16.9.9,0,0,1-.34.06,1.09,1.09,0,0,1-.26,0,1,1,0,0,1-.21-.08.55.55,0,0,1-.18-.16,1.27,1.27,0,0,1-.13-.19.88.88,0,0,1-.07-.23,1,1,0,0,1,0-.26A1,1,0,0,1,53,22.7a.75.75,0,0,1,.18-.3.77.77,0,0,1,.28-.19,1,1,0,0,1,.34-.06.87.87,0,0,1,.4.09.73.73,0,0,1,.27.21.45.45,0,0,1,.09.25.16.16,0,0,1,0,.11.12.12,0,0,1-.11.05.15.15,0,0,1-.1,0,.31.31,0,0,1-.08-.12.58.58,0,0,0-.17-.2.4.4,0,0,0-.24-.07.45.45,0,0,0-.37.17.8.8,0,0,0-.13.5.88.88,0,0,0,.06.35.37.37,0,0,0,.17.21.43.43,0,0,0,.25.07.4.4,0,0,0,.27-.08.45.45,0,0,0,.17-.23.67.67,0,0,1,.06-.12.12.12,0,0,1,.11,0,.14.14,0,0,1,.16.16Z"
     id="path134"
     style="fill:#ffffff" />
  <path
     class="cls-4"
     d="M57.52,23.22h-.13v.59a.25.25,0,0,1,0,.17.19.19,0,0,1-.28,0,.27.27,0,0,1,0-.17V22.4a.22.22,0,0,1,0-.17.25.25,0,0,1,.17-.05h.82l.16,0a.56.56,0,0,1,.15.1.54.54,0,0,1,.1.16.58.58,0,0,1,0,.19.45.45,0,0,1-.12.33.64.64,0,0,1-.35.17.7.7,0,0,1,.19.16,1.66,1.66,0,0,1,.16.21,2.21,2.21,0,0,1,.11.21.79.79,0,0,1,0,.13.11.11,0,0,1,0,.07s0,0-.06.06l-.09,0a.2.2,0,0,1-.11,0l-.07-.08a1.05,1.05,0,0,1-.08-.13L58,23.56a1.08,1.08,0,0,0-.14-.21.35.35,0,0,0-.29-.13Zm.21-.76h-.34V23h.33l.22,0a.37.37,0,0,0,.14-.08.25.25,0,0,0,.05-.16.24.24,0,0,0-.15-.22A1.14,1.14,0,0,0,57.73,22.46Z"
     id="path136"
     style="fill:#ffffff" />
  <path
     class="cls-4"
     d="M62.23,22.46H61.4v.45h.77a.19.19,0,0,1,.12,0,.14.14,0,0,1,.05.1.12.12,0,0,1-.05.1.15.15,0,0,1-.12,0H61.4v.52h.86a.22.22,0,0,1,.13,0,.15.15,0,0,1,0,.22.22.22,0,0,1-.13,0h-1a.23.23,0,0,1-.18-.06.25.25,0,0,1,0-.17V22.4a.51.51,0,0,1,0-.13.19.19,0,0,1,.08-.07l.13,0h1c.06,0,.11,0,.13,0a.13.13,0,0,1,0,.2S62.29,22.46,62.23,22.46Z"
     id="path138"
     style="fill:#ffffff" />
  <path
     class="cls-4"
     d="M66.07,23.8,66,23.57h-.75l-.08.23a1.16,1.16,0,0,1-.09.19A.15.15,0,0,1,65,24a.17.17,0,0,1-.12-.05.17.17,0,0,1-.06-.12.31.31,0,0,1,0-.08.51.51,0,0,1,0-.11l.46-1.19,0-.12a.67.67,0,0,1,.06-.12.22.22,0,0,1,.09-.07.21.21,0,0,1,.12,0,.23.23,0,0,1,.13,0,.22.22,0,0,1,.09.07.47.47,0,0,1,0,.1l.06.14.47,1.18a.58.58,0,0,1,.06.2.21.21,0,0,1,0,.12.21.21,0,0,1-.13.05l-.08,0,0,0a.59.59,0,0,1,0-.08A.93.93,0,0,0,66.07,23.8Zm-.73-.51h.55l-.28-.75Z"
     id="path140"
     style="fill:#ffffff" />
  <path
     class="cls-4"
     d="M70.41,23.43a.72.72,0,0,1,0,.19.81.81,0,0,1-.14.2A.72.72,0,0,1,70,24a.81.81,0,0,1-.33.06,1,1,0,0,1-.26,0l-.22-.08a.86.86,0,0,1-.18-.16,1.22,1.22,0,0,1-.12-.19,1.55,1.55,0,0,1-.08-.23,2,2,0,0,1,0-.26,1.23,1.23,0,0,1,.06-.39.91.91,0,0,1,.19-.3.77.77,0,0,1,.28-.19.93.93,0,0,1,.34-.06.87.87,0,0,1,.4.09.69.69,0,0,1,.26.21.45.45,0,0,1,.09.25.15.15,0,0,1,0,.11.13.13,0,0,1-.11.05.18.18,0,0,1-.11,0,.48.48,0,0,1-.08-.12.42.42,0,0,0-.17-.2.36.36,0,0,0-.24-.07.45.45,0,0,0-.36.17.8.8,0,0,0-.14.5.88.88,0,0,0,.06.35.41.41,0,0,0,.17.21.46.46,0,0,0,.26.07.4.4,0,0,0,.27-.08.51.51,0,0,0,.17-.23.23.23,0,0,1,.06-.12.12.12,0,0,1,.11,0,.15.15,0,0,1,.11,0A.18.18,0,0,1,70.41,23.43Z"
     id="path142"
     style="fill:#ffffff" />
  <path
     class="cls-4"
     d="M72.93,23.81V22.37a.29.29,0,0,1,0-.17.19.19,0,0,1,.13-.05.22.22,0,0,1,.14.05.29.29,0,0,1,0,.17v1.44a.26.26,0,0,1,0,.17.18.18,0,0,1-.14.06A.18.18,0,0,1,73,24,.26.26,0,0,1,72.93,23.81Z"
     id="path144"
     style="fill:#ffffff" />
  <path
     class="cls-4"
     d="M76.69,22.15a1.07,1.07,0,0,1,.49.11.76.76,0,0,1,.31.33,1.12,1.12,0,0,1,.1.5,1.6,1.6,0,0,1,0,.39.92.92,0,0,1-.18.3.7.7,0,0,1-.28.19.92.92,0,0,1-.38.07,1,1,0,0,1-.39-.07.8.8,0,0,1-.28-.2.87.87,0,0,1-.17-.3,1.21,1.21,0,0,1-.06-.38,1.23,1.23,0,0,1,.06-.39.75.75,0,0,1,.18-.3.82.82,0,0,1,.28-.19A1.06,1.06,0,0,1,76.69,22.15Zm.53.94a.75.75,0,0,0-.07-.35.44.44,0,0,0-.18-.22.54.54,0,0,0-.28-.08.65.65,0,0,0-.2,0,.52.52,0,0,0-.17.12.68.68,0,0,0-.1.21.79.79,0,0,0,0,.28.82.82,0,0,0,0,.28.53.53,0,0,0,.11.21.38.38,0,0,0,.16.12.46.46,0,0,0,.21,0,.48.48,0,0,0,.26-.07.46.46,0,0,0,.19-.22A1,1,0,0,0,77.22,23.09Zm-.38-1.39H77s.06,0,.06,0,0,0-.07.08l-.14.14-.1.08-.15,0s-.06,0-.06,0a.13.13,0,0,1,0-.07l0-.11c0-.06.06-.1.09-.11A.16.16,0,0,1,76.84,21.7Z"
     id="path146"
     style="fill:#ffffff" />
  <path
     class="cls-4"
     d="M80.56,22.37l.72,1.08V22.36a.25.25,0,0,1,0-.16.14.14,0,0,1,.13-.05.13.13,0,0,1,.12.05.25.25,0,0,1,.05.16V23.8c0,.16-.07.24-.2.24l-.09,0-.08,0-.06-.07-.06-.09-.7-1.07v1.08a.21.21,0,0,1,0,.15.17.17,0,0,1-.26,0,.21.21,0,0,1,0-.15V22.41a.3.3,0,0,1,0-.14.22.22,0,0,1,.08-.09.2.2,0,0,1,.11,0h.09l.06.05a.22.22,0,0,1,.06.07Z"
     id="path148"
     style="fill:#ffffff" />
  <path
     class="cls-4"
     d="M88.3,23.72,88,22.62l-.3,1.1a1.84,1.84,0,0,0-.06.18.3.3,0,0,1-.07.1.29.29,0,0,1-.14,0,.2.2,0,0,1-.11,0,.16.16,0,0,1-.07-.07,1.17,1.17,0,0,1-.05-.11l0-.12-.3-1.23a.69.69,0,0,1,0-.16.17.17,0,0,1,.05-.12.13.13,0,0,1,.12-.05c.07,0,.12,0,.14.06a1.08,1.08,0,0,1,.06.19l.24,1.07.27-1,0-.18a.25.25,0,0,1,.08-.1.22.22,0,0,1,.15,0,.2.2,0,0,1,.14,0,.2.2,0,0,1,.07.1s0,.1.06.18l.27,1,.24-1.07a.86.86,0,0,1,0-.13.41.41,0,0,1,.05-.09.22.22,0,0,1,.24,0,.21.21,0,0,1,0,.13.8.8,0,0,1,0,.16l-.3,1.23c0,.08,0,.14-.06.18a.14.14,0,0,1-.07.1.2.2,0,0,1-.14.05.25.25,0,0,1-.13,0,.17.17,0,0,1-.07-.1S88.33,23.8,88.3,23.72Z"
     id="path150"
     style="fill:#ffffff" />
  <path
     class="cls-4"
     d="M92.78,22.46H92v.45h.76a.22.22,0,0,1,.13,0,.13.13,0,0,1,0,.1.12.12,0,0,1,0,.1.17.17,0,0,1-.13,0H92v.52h.86a.22.22,0,0,1,.13,0,.15.15,0,0,1,0,.22.22.22,0,0,1-.13,0h-1a.21.21,0,0,1-.17-.06s0-.09,0-.17V22.4a.27.27,0,0,1,0-.13.16.16,0,0,1,.07-.07l.13,0h1a.17.17,0,0,1,.13,0,.12.12,0,0,1,0,.2A.17.17,0,0,1,92.78,22.46Z"
     id="path152"
     style="fill:#ffffff" />
  <path
     class="cls-4"
     d="M96.23,24h-.56A.22.22,0,0,1,95.5,24a.25.25,0,0,1,0-.17V22.4a.19.19,0,0,1,.22-.22h.82a.48.48,0,0,1,.18.07.31.31,0,0,1,.11.09.64.64,0,0,1,.08.14.61.61,0,0,1,0,.15.43.43,0,0,1-.27.4.45.45,0,0,1,.36.45.5.5,0,0,1-.08.27.46.46,0,0,1-.21.18.59.59,0,0,1-.19,0Zm-.41-1.55v.47h.34a.58.58,0,0,0,.21,0,.19.19,0,0,0,.12-.1.2.2,0,0,0,0-.11c0-.1,0-.16-.1-.19a.74.74,0,0,0-.3,0Zm.39.73h-.39v.54h.4c.25,0,.37-.09.37-.27a.23.23,0,0,0-.09-.2A.59.59,0,0,0,96.21,23.19Z"
     id="path154"
     style="fill:#ffffff" />
  <metadata
     id="metadata263">
    <rdf:RDF>
      <cc:Work
         rdf:about="">
        <dc:title>logo triwus</dc:title>
      </cc:Work>
    </rdf:RDF>
  </metadata>
</svg>
