<?xml version="1.0" encoding="UTF-8" standalone="no"?>
<!-- Generator: Adobe Illustrator 15.0.0, SVG Export Plug-In . SVG Version: 6.00 Build 0)  -->

<svg
   xmlns:dc="http://purl.org/dc/elements/1.1/"
   xmlns:cc="http://creativecommons.org/ns#"
   xmlns:rdf="http://www.w3.org/1999/02/22-rdf-syntax-ns#"
   xmlns:svg="http://www.w3.org/2000/svg"
   xmlns="http://www.w3.org/2000/svg"
   xmlns:sodipodi="http://sodipodi.sourceforge.net/DTD/sodipodi-0.dtd"
   xmlns:inkscape="http://www.inkscape.org/namespaces/inkscape"
   version="1.1"
   id="Layer_1"
   x="0px"
   y="0px"
   width="131.15401"
   height="34.862999"
   viewBox="0 0 131.15401 34.862999"
   enable-background="new 0 0 171 46"
   xml:space="preserve"
   sodipodi:docname="logo-txt.svg"
   inkscape:version="0.92.2 (5c3e80d, 2017-08-06)"><metadata
     id="metadata23"><rdf:RDF><cc:Work
         rdf:about=""><dc:format>image/svg+xml</dc:format><dc:type
           rdf:resource="http://purl.org/dc/dcmitype/StillImage" /></cc:Work></rdf:RDF></metadata><defs
     id="defs21" /><sodipodi:namedview
     pagecolor="#ffffff"
     bordercolor="#666666"
     borderopacity="1"
     objecttolerance="10"
     gridtolerance="10"
     guidetolerance="10"
     inkscape:pageopacity="0"
     inkscape:pageshadow="2"
     inkscape:window-width="1145"
     inkscape:window-height="716"
     id="namedview19"
     showgrid="false"
     inkscape:zoom="1.6842105"
     inkscape:cx="-21.940125"
     inkscape:cy="16.85"
     inkscape:window-x="35"
     inkscape:window-y="24"
     inkscape:window-maximized="0"
     inkscape:current-layer="Layer_1" /><g
     style="fill:#fff"
     id="g16"
     transform="translate(-38.862,-4.987)"><g
       id="g14"><path
         d="m 53.164,34.822 v 4.475 c -1.709,0.367 -3.033,0.553 -3.971,0.553 -1.542,0 -2.865,-0.307 -3.971,-0.918 -1.106,-0.611 -1.915,-1.449 -2.426,-2.514 -0.511,-1.062 -0.767,-2.701 -0.767,-4.914 V 18.358 H 38.862 V 13.91 h 3.494 l 0.528,-6.61 4.7,-0.427 v 7.038 h 5.103 v 4.449 h -5.103 v 12.39 c 0,1.592 0.289,2.678 0.867,3.256 0.578,0.578 1.671,0.867 3.28,0.867 0.453,0 0.93,-0.018 1.433,-0.051 z"
         id="path2"
         inkscape:connector-curvature="0" /><path
         d="M 63.721,39.297 H 57.99 V 13.91 h 5.178 v 6.058 c 0.737,-2.363 1.751,-4.088 3.042,-5.178 1.29,-1.089 2.614,-1.634 3.971,-1.634 0.184,0 0.436,0.009 0.754,0.025 v 6.158 c -2.916,0 -4.847,0.93 -5.793,2.79 -0.946,1.86 -1.42,3.662 -1.42,5.404 v 11.764 z"
         id="path4"
         inkscape:connector-curvature="0" /><path
         d="m 80.762,10.944 h -5.73 V 4.987 h 5.73 z m 0,28.353 h -5.73 V 13.91 h 5.73 z"
         id="path6"
         inkscape:connector-curvature="0" /><path
         d="m 119.545,13.91 -7.44,25.387 h -5.152 L 102.378,21.5 97.828,39.296 H 92.524 L 84.708,13.91 h 6.082 l 5.002,17.067 4.374,-17.067 h 5.202 l 4.449,17.067 4.901,-17.067 z"
         id="path8"
         inkscape:connector-curvature="0" /><path
         d="m 144.402,39.297 h -5.328 v -5.48 c -1.441,4.006 -4.114,6.008 -8.018,6.008 -2.312,0 -4.147,-0.717 -5.505,-2.148 -1.357,-1.434 -2.036,-3.432 -2.036,-5.996 V 13.91 h 5.856 v 16.54 c 0,1.826 0.402,3.025 1.206,3.594 0.805,0.57 1.592,0.855 2.363,0.855 1.239,0 2.505,-0.557 3.795,-1.672 1.29,-1.115 1.936,-3.49 1.936,-7.127 V 13.91 h 5.73 v 25.387 z"
         id="path10"
         inkscape:connector-curvature="0" /><path
         d="m 148.198,33.465 5.379,-1.029 c 0.821,2.061 2.631,3.09 5.43,3.09 3.552,0 5.328,-1.047 5.328,-3.141 0,-0.67 -0.276,-1.223 -0.829,-1.66 -0.553,-0.436 -1.207,-0.729 -1.961,-0.879 l -4.625,-0.879 c -5.127,-0.99 -7.69,-3.494 -7.69,-7.517 0,-2.245 0.812,-4.151 2.438,-5.718 1.625,-1.566 4.047,-2.35 7.264,-2.35 5.362,0 8.638,1.969 9.828,5.907 l -5.103,1.031 c -0.536,-1.911 -2.061,-2.866 -4.574,-2.866 -3.05,0 -4.574,0.955 -4.574,2.866 0,1.324 1.231,2.237 3.694,2.74 l 5.454,1.13 c 4.239,0.873 6.359,3.303 6.359,7.289 0,2.799 -1.09,4.891 -3.268,6.271 -2.179,1.383 -4.768,2.074 -7.767,2.074 -2.598,0 -4.894,-0.523 -6.887,-1.57 -1.993,-1.047 -3.292,-2.645 -3.896,-4.789 z"
         id="path12"
         inkscape:connector-curvature="0" /></g></g></svg>
