<svg version="1.1" x="0px" y="0px" [--class--] viewBox="0 0 16 16" enable-background="new 0 0 16 16" xml:space="preserve">
<circle cx="5.775" cy="8" r="1.774"/>
<circle cx="10.226" cy="8" r="1.774"/>
</svg>
