<svg version="1.1" x="0px" y="0px" [--class--] viewBox="0 0 16 16" enable-background="new 0 0 16 16" xml:space="preserve">
<path d="M6.932,12h1.661c0,0,0-2.205,0-3.997h1.121l0.146-1.412H8.593v-0.83c0-0.312,0.207-0.385,0.353-0.385s0.893,0,0.893,0V4.005
  L8.607,4C7.242,4,6.932,5.023,6.932,5.677v0.914h-0.79v1.412h0.79C6.932,9.816,6.932,12,6.932,12z"/>
</svg>
