<svg version="1.1" x="0px" y="0px" [--class--]  viewBox="0 0 16 16" enable-background="new 0 0 16 16" xml:space="preserve">
<path d="M11.3,5.3c-0.6-0.1-1-0.4-1.3-0.7C9.4,3.9,9.5,3,9.5,3H9H7.8c0,0,0,3.9,0,4c0,1,0,1.9,0,2.9c-0.1,0.7-0.6,1.3-1.4,1.3
	c-0.5,0-0.9-0.2-1.1-0.5C5,10.4,4.9,10.1,4.9,9.8c0-0.8,0.6-1.4,1.4-1.4c0.2,0,0.3,0,0.4,0.1V6.7c-0.1,0-0.3,0-0.4,0
	c0,0-0.1,0-0.1,0c-1.7,0-3.1,1.4-3.1,3.2c0,0.9,0.4,1.7,0.9,2.3C4.7,12.6,5.5,13,6.4,13c1.2,0,2.2-0.7,2.8-1.7
	c0.5-1,0.4-2.1,0.4-3.2c0-0.5,0-1.1,0-1.6c1.3,0.9,2.4,0.8,2.4,0.8V5.4C11.7,5.4,11.5,5.4,11.3,5.3z"/>
</svg>
