<svg version="1.1" x="0px" y="0px" [--class--] viewBox="0 0 16 16" enable-background="new 0 0 16 16" xml:space="preserve">
<g>
  <path d="M10.578,4.916h-0.482c-0.279,0-0.507,0.226-0.507,0.506v0.481c0,0.281,0.228,0.508,0.507,0.508h0.482
    c0.28,0,0.508-0.227,0.508-0.508V5.421C11.086,5.141,10.858,4.916,10.578,4.916z"/>
  <circle cx="8" cy="8" r="1.178"/>
  <path d="M10.545,7.533h-0.303c-0.053,0-0.104,0.022-0.139,0.062c-0.036,0.041-0.052,0.094-0.045,0.146
    C10.069,7.826,10.076,7.913,10.076,8c0,1.145-0.932,2.076-2.077,2.076c-1.144,0-2.076-0.932-2.076-2.076
    c0-0.087,0.007-0.174,0.018-0.258c0.006-0.053-0.009-0.106-0.045-0.146c-0.035-0.04-0.085-0.062-0.138-0.062H5.475
    c-0.281,0-0.561,0.229-0.561,0.511v2.535c0,0.279,0.279,0.508,0.561,0.508h5.07c0.28,0,0.541-0.229,0.541-0.508V8.043
    C11.086,7.762,10.825,7.533,10.545,7.533z"/>
  <path d="M12,0H4C1.792,0,0,1.792,0,4v8c0,2.209,1.792,4,4,4h8c2.209,0,4-1.791,4-4V4C16,1.792,14.209,0,12,0z M12.021,11.006
    c0,0.561-0.455,1.016-1.014,1.016H4.993c-0.56,0-1.014-0.455-1.014-1.016V4.993c0-0.56,0.454-1.014,1.014-1.014h6.014
    c0.559,0,1.014,0.455,1.014,1.014V11.006z"/>
</g>
</svg>
