<svg version="1.1" x="0px" y="0px" [--class--] viewBox="0 0 16 16" enable-background="new 0 0 16 16" xml:space="preserve">
<path d="M12,0H4C1.8,0,0,1.8,0,4v8c0,2.2,1.8,4,4,4h8c2.2,0,4-1.8,4-4V4C16,1.8,14.2,0,12,0z M9.3,11.3L7.6,8.7l-2.2,2.5H4.8
	l2.5-2.9L4.8,4.7h1.9l1.6,2.4l2.1-2.4H11L8.6,7.5h0l2.6,3.7H9.3z M8.3,7.8l2.1,3H9.6L7.8,8.4v0L7.6,8l-2-2.9h0.9l1.6,2.3L8.3,7.8z"
	/>
</svg>
